{
  "base_dir": "K:/automation_testing",
  "_base_dir": {
    "methylation_array_data_source": "source",
    "methylation_array_data_output": "output",
    "_methylation_array_data_output": {
      "methylation_correlation_directory": "correlation"
    },
    "pkl_directory": "pkl",
    "_pkl_directory": {
      "methylation_correlation_pkl_directory": "correlation"
    },
    "backend_upload_directory": "uploads",
    "backend_download_directory": "downloads",
    "backend_source_directory": "source"
  },
  "methylation_array_probe_count_directory": "K:/utility",

  "python_executable": "C:/Python37/python.exe",

  "x": "K:/"
}